[
  {
    "personal_title_id": "1-CSTDTQ",
    "name": "Chiến sỹ thi đua toàn quốc",
    "created_at": "2019-07-24T17:00:00Z",
    "updated_at": "2019-07-25T06:03:55Z"
  },
  {
    "personal_title_id": "2-CSTDTTLLCAND",
    "name": " Chiến sỹ thi đua toàn lực lượng CAND",
    "created_at": "2019-07-24T17:00:00Z",
    "updated_at": "2019-07-25T06:03:55Z"
  },
  {
    "personal_title_id": "3-CSTDCS",
    "name": " Chiến sỹ thi đua cơ sở",
    "created_at": "2019-07-24T17:00:00Z",
    "updated_at": "2019-07-25T06:03:55Z"
  },
  {
    "personal_title_id": "4-CSTT",
    "name": "Chiến sỹ tiên tiến",
    "created_at": "2019-07-24T17:00:00Z",
    "updated_at": "2019-07-25T06:03:55Z"
  },
  {
    "personal_title_id": "5-LDTT",
    "name": "Lao động tiên tiến",
    "created_at": "2019-07-24T17:00:00Z",
    "updated_at": "2019-07-25T06:03:55Z"
  },
  {
    "personal_title_id": "6-HTNV",
    "name": "Hoàn thành nhiệm vụ",
    "created_at": "2019-07-24T17:00:00Z",
    "updated_at": "2019-07-25T06:03:55Z"
  },
  {
    "personal_title_id": "7-KHTNV",
    "name": "Không hoàn thành nhiệm vụ",
    "created_at": "2019-07-24T17:00:00Z",
    "updated_at": "2019-07-25T06:03:55Z"
  }
]