[
  {
    "position_staff_id": "BO-T",
    "name": "Bộ trưởng",
    "created_at": "2019-07-24T17:00:00Z",
    "updated_at": "2019-07-25T06:03:55Z"
  },
  {
    "position_staff_id": "TH-TR",
    "name": "Thứ trưởng",
    "created_at": "2019-07-24T17:00:00Z",
    "updated_at": "2019-07-25T06:03:55Z"
  },
  {
    "position_staff_id": "C-T",
    "name": "Cục trưởng",
    "created_at": "2019-07-24T17:00:00Z",
    "updated_at": "2019-07-25T06:03:55Z"
  },
  {
    "position_staff_id": "PC-T",
    "name": "Phó cục trưởng",
    "created_at": "2019-07-24T17:00:00Z",
    "updated_at": "2019-07-25T06:03:55Z"
  },
  {
    "position_staff_id": "GD",
    "name": "Giám đốc",
    "created_at": "2019-07-24T17:00:00Z",
    "updated_at": "2019-07-25T06:03:55Z"
  },
  {
    "position_staff_id": "HT",
    "name": "Hiệu trưởng",
    "created_at": "2019-07-24T17:00:00Z",
    "updated_at": "2019-07-25T06:03:55Z"
  },
  {
    "position_staff_id": "PGD",
    "name": "Phó giám đốc",
    "created_at": "2019-07-24T17:00:00Z",
    "updated_at": "2019-07-25T06:03:55Z"
  },
  {
    "position_staff_id": "PHT",
    "name": "Phó hiệu trưởng",
    "created_at": "2019-07-24T17:00:00Z",
    "updated_at": "2019-07-25T06:03:55Z"
  },
  {
    "position_staff_id": "CVP",
    "name": "Chánh văn phòng",
    "created_at": "2019-07-24T17:00:00Z",
    "updated_at": "2019-07-25T06:03:55Z"
  },
  {
    "position_staff_id": "GDTT",
    "name": "Giám đốc TT",
    "created_at": "2019-07-24T17:00:00Z",
    "updated_at": "2019-07-25T06:03:55Z"
  },
  {
    "position_staff_id": "TP",
    "name": "Trưởng phòng",
    "created_at": "2019-07-24T17:00:00Z",
    "updated_at": "2019-07-25T06:03:55Z"
  },
  {
    "position_staff_id": "TQ",
    "name": "Trưởng quận",
    "created_at": "2019-07-24T17:00:00Z",
    "updated_at": "2019-07-25T06:03:55Z"
  },
  {
    "position_staff_id": "TH",
    "name": "Trưởng huyện",
    "created_at": "2019-07-24T17:00:00Z",
    "updated_at": "2019-07-25T06:03:55Z"
  },
  {
    "position_staff_id": "PCVP",
    "name": "Phó chánh văn phòng",
    "created_at": "2019-07-24T17:00:00Z",
    "updated_at": "2019-07-25T06:03:55Z"
  },
  {
    "position_staff_id": "PGDTT",
    "name": "Phó giám đốc TT",
    "created_at": "2019-07-24T17:00:00Z",
    "updated_at": "2019-07-25T06:03:55Z"
  },
  {
    "position_staff_id": "PTP",
    "name": "Phó trưởng phòng",
    "created_at": "2019-07-24T17:00:00Z",
    "updated_at": "2019-07-25T06:03:55Z"
  },
  {
    "position_staff_id": "PTQ",
    "name": "Phó trưởng quận",
    "created_at": "2019-07-24T17:00:00Z",
    "updated_at": "2019-07-25T06:03:55Z"
  },
  {
    "position_staff_id": "PTH",
    "name": "Phó trưởng huyện",
    "created_at": "2019-07-24T17:00:00Z",
    "updated_at": "2019-07-25T06:03:55Z"
  },
  {
    "position_staff_id": "DOI-T",
    "name": "Đội trưởng",
    "created_at": "2019-07-24T17:00:00Z",
    "updated_at": "2019-07-25T06:03:55Z"
  },
  {
    "position_staff_id": "DON-T",
    "name": "Đồn trưởng",
    "created_at": "2019-07-24T17:00:00Z",
    "updated_at": "2019-07-25T06:03:55Z"
  },
  {
    "position_staff_id": "TO-T",
    "name": "Tổ trưởng",
    "created_at": "2019-07-24T17:00:00Z",
    "updated_at": "2019-07-25T06:03:55Z"
  },
  {
    "position_staff_id": "PDOI-T",
    "name": "Phó đội trưởng",
    "created_at": "2019-07-24T17:00:00Z",
    "updated_at": "2019-07-25T06:03:55Z"
  },
  {
    "position_staff_id": "PDON-T",
    "name": "Phó đồn trưởng",
    "created_at": "2019-07-24T17:00:00Z",
    "updated_at": "2019-07-25T06:03:55Z"
  },
  {
    "position_staff_id": "PTO-T",
    "name": "Phó tổ trưởng",
    "created_at": "2019-07-24T17:00:00Z",
    "updated_at": "2019-07-25T06:03:55Z"
  }

]