[
  {
    "rank_staff_id": "TU-DAI",
    "name": "Đại tướng",
    "thumbnails": "dai-tuong.png",
    "created_at": "2019-07-24T17:00:00Z",
    "updated_at": "2019-07-25T06:03:55Z"
  },
  {
    "rank_staff_id": "TU-THUONG",
    "name": "Thượng tướng",
    "thumbnails": "thuong-tuong.png",
    "created_at": "2019-07-24T17:00:00Z",
    "updated_at": "2019-07-25T06:03:55Z"
  },
  {
    "rank_staff_id": "TU-TRUNG",
    "name": "Trung tướng",
    "thumbnails": "trung-tuong.png",
    "created_at": "2019-07-24T17:00:00Z",
    "updated_at": "2019-07-25T06:03:55Z"
  },
  {
    "rank_staff_id": "TU-THIEU",
    "name": "Thiếu tướng",
    "thumbnails": "thieu-tuong.png",
    "created_at": "2019-07-24T17:00:00Z",
    "updated_at": "2019-07-25T06:03:55Z"
  },
  {
    "rank_staff_id": "TA-DAI",
    "name": "Đại tá",
    "thumbnails": "dai-ta.png",
    "created_at": "2019-07-24T17:00:00Z",
    "updated_at": "2019-07-25T06:03:55Z"
  },
  {
    "rank_staff_id": "TA-THUONG",
    "name": "Thượng tá",
    "thumbnails": "thuong-ta.png",
    "created_at": "2019-07-24T17:00:00Z",
    "updated_at": "2019-07-25T06:03:55Z"
  },
  {
    "rank_staff_id": "TA-TRUNG",
    "name": "Trung tá",
    "thumbnails": "trung-ta.png",
    "created_at": "2019-07-24T17:00:00Z",
    "updated_at": "2019-07-25T06:03:55Z"
  },
  {
    "rank_staff_id": "TA-THIEU",
    "name": "Thiếu tá",
    "thumbnails": "thieu-ta.png",
    "created_at": "2019-07-24T17:00:00Z",
    "updated_at": "2019-07-25T06:03:55Z"
  },
  {
    "rank_staff_id": "UY-DAI",
    "name": "Đại úy",
    "thumbnails": "dai-uy.png",
    "created_at": "2019-07-24T17:00:00Z",
    "updated_at": "2019-07-25T06:03:55Z"
  },
  {
    "rank_staff_id": "UY-THUONG",
    "name": "Thượng úy",
    "thumbnails": "thuong-uy.png",
    "created_at": "2019-07-24T17:00:00Z",
    "updated_at": "2019-07-25T06:03:55Z"
  },
  {
    "rank_staff_id": "UY-TRUNG",
    "name": "Trung úy",
    "thumbnails": "trung-uy.png",
    "created_at": "2019-07-24T17:00:00Z",
    "updated_at": "2019-07-25T06:03:55Z"
  },
  {
    "rank_staff_id": "UY-THIEU",
    "name": "Thiếu úy",
    "thumbnails": "thieu-uy.png",
    "created_at": "2019-07-24T17:00:00Z",
    "updated_at": "2019-07-25T06:03:55Z"
  },
  {
    "rank_staff_id": "SI-THUONG",
    "name": "Thượng sĩ",
    "thumbnails": "thuong-si.png",
    "created_at": "2019-07-24T17:00:00Z",
    "updated_at": "2019-07-25T06:03:55Z"
  },
  {
    "rank_staff_id": "SI-TRUNG",
    "name": "Trung sĩ",
    "thumbnails": "trung-si.png",
    "created_at": "2019-07-24T17:00:00Z",
    "updated_at": "2019-07-25T06:03:55Z"
  },
  {
    "rank_staff_id": "SI-HA",
    "name": "Hạ sĩ",
    "thumbnails": "ha-si.png",
    "created_at": "2019-07-24T17:00:00Z",
    "updated_at": "2019-07-25T06:03:55Z"
  },
  {
    "rank_staff_id": "B1",
    "name": "Binh nhất",
    "thumbnails": "binh-nhat.png",
    "created_at": "2019-07-24T17:00:00Z",
    "updated_at": "2019-07-25T06:03:55Z"
  },
  {
    "rank_staff_id": "B2",
    "name": "Binh nhì",
    "thumbnails": "binh-nhi.png",
    "created_at": "2019-07-24T17:00:00Z",
    "updated_at": "2019-07-25T06:03:55Z"
  },
  {
    "rank_staff_id": "HOCVIEN-DH-CD",
    "name": "Học viên đại học - cao đẳng",
    "thumbnails": "hoc-vien-dai-hoc-cao-dang.png",
    "created_at": "2019-07-24T17:00:00Z",
    "updated_at": "2019-07-25T06:03:55Z"
  },
  {
    "rank_staff_id": "HOCVIEN-TC-SC",
    "name": "Học viên trung cấp - sơ cấp",
    "thumbnails": "hoc-vien-trung-cap-so-cap.png",
    "created_at": "2019-07-24T17:00:00Z",
    "updated_at": "2019-07-25T06:03:55Z"
  },
  {
    "rank_staff_id": "CMKT-TA-THUONG",
    "name": "Thượng tá CMKT",
    "thumbnails": "cmkt-thuong-ta.png",
    "created_at": "2019-07-24T17:00:00Z",
    "updated_at": "2019-07-25T06:03:55Z"
  },
  {
    "rank_staff_id": "CMKT-TA-TRUNG",
    "name": "Trung tá CMKT",
    "thumbnails": "cmkt-trung-ta.png",
    "created_at": "2019-07-24T17:00:00Z",
    "updated_at": "2019-07-25T06:03:55Z"
  },
  {
    "rank_staff_id": "CMKT-TA-THIEU",
    "name": "Thiếu tá CMKT",
    "thumbnails": "cmkt-thieu-ta.png",
    "created_at": "2019-07-24T17:00:00Z",
    "updated_at": "2019-07-25T06:03:55Z"
  },
  {
    "rank_staff_id": "CMKT-UY-DAI",
    "name": "Đại úy CMKT",
    "thumbnails": "cmkt-dai-uy.png",
    "created_at": "2019-07-24T17:00:00Z",
    "updated_at": "2019-07-25T06:03:55Z"
  },
  {
    "rank_staff_id": "CMKT-UY-THUONG",
    "name": "Thượng úy CMKT",
    "thumbnails": "cmkt-thuong-uy.png",
    "created_at": "2019-07-24T17:00:00Z",
    "updated_at": "2019-07-25T06:03:55Z"
  },
  {
    "rank_staff_id": "CMKT-UY-TRUNG",
    "name": "Trung úy CMKT",
    "thumbnails": "cmkt-trung-uy.png",
    "created_at": "2019-07-24T17:00:00Z",
    "updated_at": "2019-07-25T06:03:55Z"
  },
  {
    "rank_staff_id": "CMKT-UY-THIEU",
    "name": "Thiếu úy CMKT",
    "thumbnails": "cmkt-thieu-uy.png",
    "created_at": "2019-07-24T17:00:00Z",
    "updated_at": "2019-07-25T06:03:55Z"
  },
  {
    "rank_staff_id": "CMKT-SI-THUONG",
    "name": "Thượng sĩ CMKT",
    "thumbnails": "cmkt-thuong-si.png",
    "created_at": "2019-07-24T17:00:00Z",
    "updated_at": "2019-07-25T06:03:55Z"
  },
  {
    "rank_staff_id": "CMKT-SI-TRUNG",
    "name": "Trung sĩ CMKT",
    "thumbnails": "cmkt-trung-si.png",
    "created_at": "2019-07-24T17:00:00Z",
    "updated_at": "2019-07-25T06:03:55Z"
  },
  {
    "rank_staff_id": "CMKT-SI-HA",
    "name": "Hạ sĩ CMKT",
    "thumbnails": "cmkt-ha-si.png",
    "created_at": "2019-07-24T17:00:00Z",
    "updated_at": "2019-07-25T06:03:55Z"
  },
  {
    "rank_staff_id": "NVHD",
    "name": "Nhân viên hợp đồng",
    "thumbnails": "nhan-vien-hop-dong.png",
    "created_at": "2019-07-24T17:00:00Z",
    "updated_at": "2019-07-25T06:03:55Z"
  },
  {
    "rank_staff_id": "CNV",
    "name": "Công nhân viên",
    "thumbnails": "cong-nhan-vien.png",
    "created_at": "2019-07-24T17:00:00Z",
    "updated_at": "2019-07-25T06:03:55Z"
  }
]